01-03-2018:08:55:55.433 : asp_representation.meta : DEBUG    [meta.py:183]  #program background.
01-03-2018:08:55:55.433 : asp_representation.meta : DEBUG    [meta.py:81]  #program posExamples.
01-03-2018:08:55:55.434 : asp_representation.meta : DEBUG    [meta.py:93]  ex(ex1).
01-03-2018:08:55:55.434 : asp_representation.meta : DEBUG    [meta.py:94]  :- not covered(ex1).
01-03-2018:08:55:55.434 : asp_representation.meta : DEBUG    [meta.py:105]  covered(ex1) :-  e(q,ex1), not e(r,ex1).
01-03-2018:08:55:55.434 : asp_representation.meta : DEBUG    [meta.py:93]  ex(ex2).
01-03-2018:08:55:55.434 : asp_representation.meta : DEBUG    [meta.py:94]  :- not covered(ex2).
01-03-2018:08:55:55.434 : asp_representation.meta : DEBUG    [meta.py:105]  covered(ex2) :-  e(q,ex2), e(r,ex2).
01-03-2018:08:55:55.434 : asp_representation.meta : DEBUG    [meta.py:93]  ex(ex3).
01-03-2018:08:55:55.434 : asp_representation.meta : DEBUG    [meta.py:94]  :- not covered(ex3).
01-03-2018:08:55:55.434 : asp_representation.meta : DEBUG    [meta.py:105]  covered(ex3) :-  e(p,ex3).
01-03-2018:08:55:55.434 : asp_representation.meta : DEBUG    [meta.py:110]  #program negExamples .
01-03-2018:08:55:55.434 : asp_representation.meta : DEBUG    [meta.py:124]  violating :-  e(p,neg), e(r,neg).
01-03-2018:08:55:55.434 : asp_representation.meta : DEBUG    [meta.py:147]  #program choose (n).
01-03-2018:08:55:55.434 : asp_representation.meta : DEBUG    [meta.py:150]  {active(X)} :- X=@getRuleIds().
01-03-2018:08:55:55.434 : asp_representation.meta : DEBUG    [meta.py:150]  :- not #sum {X,R : active(R), length(R,X)} == n , step(n).
01-03-2018:08:55:55.435 : asp_representation.meta : DEBUG    [meta.py:150]  :-  ex(neg), not violating.
01-03-2018:08:55:55.435 : asp_representation.meta : DEBUG    [meta.py:158]  #program step (t).
01-03-2018:08:55:55.435 : asp_representation.meta : DEBUG    [meta.py:159]  step(t).
01-03-2018:08:55:55.435 : asp_representation.meta : DEBUG    [meta.py:168]  #program ilaspExNeg (t).
01-03-2018:08:55:55.435 : asp_representation.meta : DEBUG    [meta.py:169]  #external ex(t).
01-03-2018:08:55:55.435 : asp_representation.meta : DEBUG    [meta.py:65]  #program meta.
01-03-2018:08:55:55.435 : asp_representation.meta : DEBUG    [meta.py:66]  #project active/1.
01-03-2018:08:55:55.436 : searchspace.searchspace : INFO     [searchspace.py:102]  building rules of length 1: ......
01-03-2018:08:55:55.436 : searchspace.searchspace : DEBUG    [searchspace.py:300]  entered generate_bodies_no_vars
01-03-2018:08:55:55.437 : searchspace.searchspace : DEBUG    [searchspace.py:307]  left generate_bodies_no_vars
01-03-2018:08:55:55.437 : searchspace.searchspace : DEBUG    [searchspace.py:300]  entered generate_bodies_no_vars
01-03-2018:08:55:55.438 : searchspace.searchspace : DEBUG    [searchspace.py:307]  left generate_bodies_no_vars
01-03-2018:08:55:55.438 : searchspace.searchspace : DEBUG    [searchspace.py:300]  entered generate_bodies_no_vars
01-03-2018:08:55:55.439 : searchspace.searchspace : DEBUG    [searchspace.py:307]  left generate_bodies_no_vars
01-03-2018:08:55:55.439 : searchspace.searchspace : DEBUG    [searchspace.py:296]  Hypothesis length 1: 0 times varArrangements postprocessed out of 3.
01-03-2018:08:55:55.440 : searchspace.searchspace : DEBUG    [searchspace.py:225]  ~ 1:  :- not e(s, X),active(r1), ex(X).
01-03-2018:08:55:55.440 : searchspace.searchspace : DEBUG    [searchspace.py:225]  ~ 1:  :- e(s, X),active(r2), ex(X).
01-03-2018:08:55:55.440 : searchspace.searchspace : DEBUG    [searchspace.py:225]  ~ 1:  :- not e(r, X),active(r3), ex(X).
01-03-2018:08:55:55.440 : searchspace.searchspace : DEBUG    [searchspace.py:225]  ~ 1:  :- e(r, X),active(r4), ex(X).
01-03-2018:08:55:55.440 : searchspace.searchspace : DEBUG    [searchspace.py:225]  ~ 1:  :- not e(p, X),active(r5), ex(X).
01-03-2018:08:55:55.440 : searchspace.searchspace : DEBUG    [searchspace.py:225]  ~ 1:  :- e(p, X),active(r6), ex(X).
01-03-2018:08:55:55.440 : searchspace.searchspace : DEBUG    [searchspace.py:225]  ~ 1: e(s, X)  :- active(r7), ex(X).
01-03-2018:08:55:55.440 : searchspace.searchspace : DEBUG    [searchspace.py:225]  ~ 1: e(r, X)  :- active(r8), ex(X).
01-03-2018:08:55:55.440 : searchspace.searchspace : DEBUG    [searchspace.py:75]  length(r1..r8). - Rules build.
01-03-2018:08:55:55.440 : searchspace.searchspace : DEBUG    [searchspace.py:110]  length rules: 
01-03-2018:08:55:55.441 : searchspace.searchspace : DEBUG    [searchspace.py:223]  ~ 1: length(r1,1).
01-03-2018:08:55:55.441 : searchspace.searchspace : DEBUG    [searchspace.py:223]  ~ 1: length(r2,1).
01-03-2018:08:55:55.441 : searchspace.searchspace : DEBUG    [searchspace.py:223]  ~ 1: length(r3,1).
01-03-2018:08:55:55.441 : searchspace.searchspace : DEBUG    [searchspace.py:223]  ~ 1: length(r4,1).
01-03-2018:08:55:55.441 : searchspace.searchspace : DEBUG    [searchspace.py:223]  ~ 1: length(r5,1).
01-03-2018:08:55:55.441 : searchspace.searchspace : DEBUG    [searchspace.py:223]  ~ 1: length(r6,1).
01-03-2018:08:55:55.441 : searchspace.searchspace : DEBUG    [searchspace.py:223]  ~ 1: length(r7,1).
01-03-2018:08:55:55.441 : searchspace.searchspace : DEBUG    [searchspace.py:223]  ~ 1: length(r8,1).
01-03-2018:08:55:55.441 : searchspace.searchspace : INFO     [searchspace.py:116]  # generated rules ~ 1: 8 + 8 length-rules.
01-03-2018:08:55:55.443 : searchspace.searchspace : INFO     [searchspace.py:102]  building rules of length 2: ......
01-03-2018:08:55:55.443 : searchspace.searchspace : DEBUG    [searchspace.py:300]  entered generate_bodies_no_vars
01-03-2018:08:55:55.445 : searchspace.searchspace : DEBUG    [searchspace.py:307]  left generate_bodies_no_vars
01-03-2018:08:55:55.445 : searchspace.searchspace : DEBUG    [searchspace.py:300]  entered generate_bodies_no_vars
01-03-2018:08:55:55.447 : searchspace.searchspace : DEBUG    [searchspace.py:307]  left generate_bodies_no_vars
01-03-2018:08:55:55.447 : searchspace.searchspace : DEBUG    [searchspace.py:300]  entered generate_bodies_no_vars
01-03-2018:08:55:55.449 : searchspace.searchspace : DEBUG    [searchspace.py:307]  left generate_bodies_no_vars
01-03-2018:08:55:55.449 : searchspace.searchspace : DEBUG    [searchspace.py:296]  Hypothesis length 2: 0 times varArrangements postprocessed out of 3.
01-03-2018:08:55:55.452 : searchspace.searchspace : DEBUG    [searchspace.py:225]  ~ 2:  :- not e(p, X),e(s, X),active(r9), ex(X).
01-03-2018:08:55:55.452 : searchspace.searchspace : DEBUG    [searchspace.py:225]  ~ 2:  :- e(p, X),not e(s, X),active(r10), ex(X).
01-03-2018:08:55:55.453 : searchspace.searchspace : DEBUG    [searchspace.py:225]  ~ 2:  :- not e(p, X),not e(s, X),active(r11), ex(X).
01-03-2018:08:55:55.453 : searchspace.searchspace : DEBUG    [searchspace.py:225]  ~ 2:  :- e(p, X),e(s, X),active(r12), ex(X).
01-03-2018:08:55:55.453 : searchspace.searchspace : DEBUG    [searchspace.py:225]  ~ 2:  :- not e(s, X),e(r, X),active(r13), ex(X).
01-03-2018:08:55:55.453 : searchspace.searchspace : DEBUG    [searchspace.py:225]  ~ 2:  :- e(s, X),not e(r, X),active(r14), ex(X).
01-03-2018:08:55:55.453 : searchspace.searchspace : DEBUG    [searchspace.py:225]  ~ 2:  :- not e(s, X),not e(r, X),active(r15), ex(X).
01-03-2018:08:55:55.453 : searchspace.searchspace : DEBUG    [searchspace.py:225]  ~ 2:  :- e(s, X),e(r, X),active(r16), ex(X).
01-03-2018:08:55:55.453 : searchspace.searchspace : DEBUG    [searchspace.py:225]  ~ 2:  :- not e(p, X),e(r, X),active(r17), ex(X).
01-03-2018:08:55:55.453 : searchspace.searchspace : DEBUG    [searchspace.py:225]  ~ 2:  :- e(p, X),not e(r, X),active(r18), ex(X).
01-03-2018:08:55:55.453 : searchspace.searchspace : DEBUG    [searchspace.py:225]  ~ 2:  :- not e(p, X),not e(r, X),active(r19), ex(X).
01-03-2018:08:55:55.453 : searchspace.searchspace : DEBUG    [searchspace.py:225]  ~ 2:  :- e(p, X),e(r, X),active(r20), ex(X).
01-03-2018:08:55:55.453 : searchspace.searchspace : DEBUG    [searchspace.py:225]  ~ 2: e(r, X)  :- not e(s, X),active(r21), ex(X).
01-03-2018:08:55:55.453 : searchspace.searchspace : DEBUG    [searchspace.py:225]  ~ 2: e(r, X)  :- e(s, X),active(r22), ex(X).
01-03-2018:08:55:55.453 : searchspace.searchspace : DEBUG    [searchspace.py:225]  ~ 2: e(s, X)  :- not e(r, X),active(r23), ex(X).
01-03-2018:08:55:55.453 : searchspace.searchspace : DEBUG    [searchspace.py:225]  ~ 2: e(s, X)  :- e(r, X),active(r24), ex(X).
01-03-2018:08:55:55.453 : searchspace.searchspace : DEBUG    [searchspace.py:225]  ~ 2: e(s, X)  :- not e(p, X),active(r25), ex(X).
01-03-2018:08:55:55.454 : searchspace.searchspace : DEBUG    [searchspace.py:225]  ~ 2: e(r, X)  :- not e(p, X),active(r26), ex(X).
01-03-2018:08:55:55.454 : searchspace.searchspace : DEBUG    [searchspace.py:225]  ~ 2: e(s, X)  :- e(p, X),active(r27), ex(X).
01-03-2018:08:55:55.454 : searchspace.searchspace : DEBUG    [searchspace.py:225]  ~ 2: e(r, X)  :- e(p, X),active(r28), ex(X).
01-03-2018:08:55:55.454 : searchspace.searchspace : DEBUG    [searchspace.py:75]  length(r9..r28). - Rules build.
01-03-2018:08:55:55.454 : searchspace.searchspace : DEBUG    [searchspace.py:110]  length rules: 
01-03-2018:08:55:55.454 : searchspace.searchspace : DEBUG    [searchspace.py:223]  ~ 2: length(r9,2).
01-03-2018:08:55:55.454 : searchspace.searchspace : DEBUG    [searchspace.py:223]  ~ 2: length(r10,2).
01-03-2018:08:55:55.454 : searchspace.searchspace : DEBUG    [searchspace.py:223]  ~ 2: length(r11,2).
01-03-2018:08:55:55.454 : searchspace.searchspace : DEBUG    [searchspace.py:223]  ~ 2: length(r12,2).
01-03-2018:08:55:55.454 : searchspace.searchspace : DEBUG    [searchspace.py:223]  ~ 2: length(r13,2).
01-03-2018:08:55:55.454 : searchspace.searchspace : DEBUG    [searchspace.py:223]  ~ 2: length(r14,2).
01-03-2018:08:55:55.454 : searchspace.searchspace : DEBUG    [searchspace.py:223]  ~ 2: length(r15,2).
01-03-2018:08:55:55.454 : searchspace.searchspace : DEBUG    [searchspace.py:223]  ~ 2: length(r16,2).
01-03-2018:08:55:55.454 : searchspace.searchspace : DEBUG    [searchspace.py:223]  ~ 2: length(r17,2).
01-03-2018:08:55:55.455 : searchspace.searchspace : DEBUG    [searchspace.py:223]  ~ 2: length(r18,2).
01-03-2018:08:55:55.455 : searchspace.searchspace : DEBUG    [searchspace.py:223]  ~ 2: length(r19,2).
01-03-2018:08:55:55.455 : searchspace.searchspace : DEBUG    [searchspace.py:223]  ~ 2: length(r20,2).
01-03-2018:08:55:55.455 : searchspace.searchspace : DEBUG    [searchspace.py:223]  ~ 2: length(r21,2).
01-03-2018:08:55:55.455 : searchspace.searchspace : DEBUG    [searchspace.py:223]  ~ 2: length(r22,2).
01-03-2018:08:55:55.455 : searchspace.searchspace : DEBUG    [searchspace.py:223]  ~ 2: length(r23,2).
01-03-2018:08:55:55.455 : searchspace.searchspace : DEBUG    [searchspace.py:223]  ~ 2: length(r24,2).
01-03-2018:08:55:55.455 : searchspace.searchspace : DEBUG    [searchspace.py:223]  ~ 2: length(r25,2).
01-03-2018:08:55:55.455 : searchspace.searchspace : DEBUG    [searchspace.py:223]  ~ 2: length(r26,2).
01-03-2018:08:55:55.456 : searchspace.searchspace : DEBUG    [searchspace.py:223]  ~ 2: length(r27,2).
01-03-2018:08:55:55.456 : searchspace.searchspace : DEBUG    [searchspace.py:223]  ~ 2: length(r28,2).
01-03-2018:08:55:55.456 : searchspace.searchspace : INFO     [searchspace.py:116]  # generated rules ~ 2: 20 + 20 length-rules.
01-03-2018:08:55:55.461 : searchspace.searchspace : INFO     [searchspace.py:102]  building rules of length 3: ......
01-03-2018:08:55:55.461 : searchspace.searchspace : DEBUG    [searchspace.py:300]  entered generate_bodies_no_vars
01-03-2018:08:55:55.464 : searchspace.searchspace : DEBUG    [searchspace.py:307]  left generate_bodies_no_vars
01-03-2018:08:55:55.464 : searchspace.searchspace : DEBUG    [searchspace.py:296]  Hypothesis length 3: 0 times varArrangements postprocessed out of 1.
01-03-2018:08:55:55.470 : searchspace.searchspace : DEBUG    [searchspace.py:225]  ~ 3:  :- not e(p, X),e(s, X),e(r, X),active(r29), ex(X).
01-03-2018:08:55:55.470 : searchspace.searchspace : DEBUG    [searchspace.py:225]  ~ 3:  :- e(p, X),not e(s, X),e(r, X),active(r30), ex(X).
01-03-2018:08:55:55.470 : searchspace.searchspace : DEBUG    [searchspace.py:225]  ~ 3:  :- e(p, X),e(s, X),not e(r, X),active(r31), ex(X).
01-03-2018:08:55:55.470 : searchspace.searchspace : DEBUG    [searchspace.py:225]  ~ 3:  :- not e(p, X),not e(s, X),e(r, X),active(r32), ex(X).
01-03-2018:08:55:55.470 : searchspace.searchspace : DEBUG    [searchspace.py:225]  ~ 3:  :- not e(p, X),e(s, X),not e(r, X),active(r33), ex(X).
01-03-2018:08:55:55.470 : searchspace.searchspace : DEBUG    [searchspace.py:225]  ~ 3:  :- e(p, X),not e(s, X),not e(r, X),active(r34), ex(X).
01-03-2018:08:55:55.470 : searchspace.searchspace : DEBUG    [searchspace.py:225]  ~ 3:  :- not e(p, X),not e(s, X),not e(r, X),active(r35), ex(X).
01-03-2018:08:55:55.470 : searchspace.searchspace : DEBUG    [searchspace.py:225]  ~ 3:  :- e(p, X),e(s, X),e(r, X),active(r36), ex(X).
01-03-2018:08:55:55.470 : searchspace.searchspace : DEBUG    [searchspace.py:225]  ~ 3: e(r, X)  :- not e(p, X),e(s, X),active(r37), ex(X).
01-03-2018:08:55:55.470 : searchspace.searchspace : DEBUG    [searchspace.py:225]  ~ 3: e(r, X)  :- e(p, X),not e(s, X),active(r38), ex(X).
01-03-2018:08:55:55.471 : searchspace.searchspace : DEBUG    [searchspace.py:225]  ~ 3: e(r, X)  :- not e(p, X),not e(s, X),active(r39), ex(X).
01-03-2018:08:55:55.471 : searchspace.searchspace : DEBUG    [searchspace.py:225]  ~ 3: e(r, X)  :- e(p, X),e(s, X),active(r40), ex(X).
01-03-2018:08:55:55.471 : searchspace.searchspace : DEBUG    [searchspace.py:225]  ~ 3: e(s, X)  :- not e(p, X),e(r, X),active(r41), ex(X).
01-03-2018:08:55:55.471 : searchspace.searchspace : DEBUG    [searchspace.py:225]  ~ 3: e(s, X)  :- e(p, X),not e(r, X),active(r42), ex(X).
01-03-2018:08:55:55.471 : searchspace.searchspace : DEBUG    [searchspace.py:225]  ~ 3: e(s, X)  :- not e(p, X),not e(r, X),active(r43), ex(X).
01-03-2018:08:55:55.471 : searchspace.searchspace : DEBUG    [searchspace.py:225]  ~ 3: e(s, X)  :- e(p, X),e(r, X),active(r44), ex(X).
01-03-2018:08:55:55.471 : searchspace.searchspace : DEBUG    [searchspace.py:75]  length(r29..r44). - Rules build.
01-03-2018:08:55:55.471 : searchspace.searchspace : DEBUG    [searchspace.py:110]  length rules: 
01-03-2018:08:55:55.471 : searchspace.searchspace : DEBUG    [searchspace.py:223]  ~ 3: length(r29,3).
01-03-2018:08:55:55.471 : searchspace.searchspace : DEBUG    [searchspace.py:223]  ~ 3: length(r30,3).
01-03-2018:08:55:55.471 : searchspace.searchspace : DEBUG    [searchspace.py:223]  ~ 3: length(r31,3).
01-03-2018:08:55:55.471 : searchspace.searchspace : DEBUG    [searchspace.py:223]  ~ 3: length(r32,3).
01-03-2018:08:55:55.471 : searchspace.searchspace : DEBUG    [searchspace.py:223]  ~ 3: length(r33,3).
01-03-2018:08:55:55.471 : searchspace.searchspace : DEBUG    [searchspace.py:223]  ~ 3: length(r34,3).
01-03-2018:08:55:55.471 : searchspace.searchspace : DEBUG    [searchspace.py:223]  ~ 3: length(r35,3).
01-03-2018:08:55:55.472 : searchspace.searchspace : DEBUG    [searchspace.py:223]  ~ 3: length(r36,3).
01-03-2018:08:55:55.472 : searchspace.searchspace : DEBUG    [searchspace.py:223]  ~ 3: length(r37,3).
01-03-2018:08:55:55.472 : searchspace.searchspace : DEBUG    [searchspace.py:223]  ~ 3: length(r38,3).
01-03-2018:08:55:55.472 : searchspace.searchspace : DEBUG    [searchspace.py:223]  ~ 3: length(r39,3).
01-03-2018:08:55:55.472 : searchspace.searchspace : DEBUG    [searchspace.py:223]  ~ 3: length(r40,3).
01-03-2018:08:55:55.472 : searchspace.searchspace : DEBUG    [searchspace.py:223]  ~ 3: length(r41,3).
01-03-2018:08:55:55.472 : searchspace.searchspace : DEBUG    [searchspace.py:223]  ~ 3: length(r42,3).
01-03-2018:08:55:55.472 : searchspace.searchspace : DEBUG    [searchspace.py:223]  ~ 3: length(r43,3).
01-03-2018:08:55:55.472 : searchspace.searchspace : DEBUG    [searchspace.py:223]  ~ 3: length(r44,3).
01-03-2018:08:55:55.472 : searchspace.searchspace : INFO     [searchspace.py:116]  # generated rules ~ 3: 16 + 16 length-rules.
01-03-2018:08:55:55.478 : searchspace.searchspace : INFO     [searchspace.py:102]  building rules of length 4: ......
01-03-2018:08:55:55.478 : searchspace.searchspace : DEBUG    [searchspace.py:296]  Hypothesis length 4: 0 times varArrangements postprocessed out of 0.
01-03-2018:08:55:55.478 : searchspace.searchspace : INFO     [searchspace.py:116]  # generated rules ~ 4: 0 + 0 length-rules.
01-03-2018:08:55:55.484 : searchspace.searchspace : INFO     [searchspace.py:102]  building rules of length 5: ......
01-03-2018:08:55:55.484 : searchspace.searchspace : DEBUG    [searchspace.py:296]  Hypothesis length 5: 0 times varArrangements postprocessed out of 0.
01-03-2018:08:55:55.484 : searchspace.searchspace : INFO     [searchspace.py:116]  # generated rules ~ 5: 0 + 0 length-rules.
