{"pos":[
	{
	"inclusions": ["q"],
	"exclusions": ["r"]
	},
	{
	"inclusions": ["q", "r"],
	"exclusions": ""
	},
	{
	"inclusions":["p"],
	"exclusions": ""
	}

	],
"neg":[
	{
	"inclusions": ["p", "r"],
	"exclusions": ""
	}
	]
}
