{"M_ha": [],

"M_h":[
		{"content": "modeh(r)",
		"vartypes": [],
		"consttypes": []
		},
		{"content": "modeh(s)",
		"vartypes": [],
		"consttypes": []
		}

	],

"M_b": [
	{"content": "modeb(1,p)",
		"vartypes": [],
		"consttypes": []
	},
	{"content": "modeb(1,s)",
		"vartypes": [],
		"consttypes": []
	},
	{"content": "modeb(1,r)",
		"vartypes": [],
		"consttypes": []
	}
]


}
