{
  "duration": 0.015184879302978516, 
  "start": 1520453454.688465, 
  "name": "total", 
  "children": [
    {
      "duration": 0.005499839782714844, 
      "start": 1520453454.698084, 
      "metadata": [
        "iter_neg_pos"
      ], 
      "name": "ILASP.run_ilasp", 
      "children": [
        {
          "duration": 0.005048036575317383, 
          "start": 1520453454.69821, 
          "name": "ILASP.iteration_step[0]", 
          "children": [
            {
              "duration": 0.0027108192443847656, 
              "start": 1520453454.698641, 
              "name": "SearchSpace.build_search_space", 
              "children": []
            }, 
            {
              "duration": 0.0004980564117431641, 
              "start": 1520453454.701552, 
              "name": "ILASP.ground", 
              "children": []
            }, 
            {
              "duration": 0.00045490264892578125, 
              "start": 1520453454.702063, 
              "name": "Control.run_negative_phase", 
              "children": []
            }, 
            {
              "duration": 0.0006549358367919922, 
              "start": 1520453454.702529, 
              "name": "Control.run_positive_phase", 
              "children": [
                {
                  "duration": 4.00543212890625e-05, 
                  "start": 1520453454.702667, 
                  "metadata": [
                    "is_solution"
                  ], 
                  "name": "Control.run_positive_phase.next_solution[0]", 
                  "children": []
                }, 
                {
                  "duration": 2.193450927734375e-05, 
                  "start": 1520453454.702812, 
                  "metadata": [
                    "is_solution"
                  ], 
                  "name": "Control.run_positive_phase.next_solution[1]", 
                  "children": []
                }, 
                {
                  "duration": 1.9073486328125e-05, 
                  "start": 1520453454.702934, 
                  "metadata": [
                    "is_solution"
                  ], 
                  "name": "Control.run_positive_phase.next_solution[2]", 
                  "children": []
                }, 
                {
                  "duration": 1.7881393432617188e-05, 
                  "start": 1520453454.703051, 
                  "metadata": [
                    "is_solution"
                  ], 
                  "name": "Control.run_positive_phase.next_solution[3]", 
                  "children": []
                }
              ]
            }
          ]
        }
      ]
    }
  ]
}